Al_Quran_Analysis.utf8.md
…
df_summary_q <- q_content %>% group_by(juzuk=juz) %>% summarise(total_ayat = n())
print(df_summary_q)

## # A tibble: 114 x 2
##    juzuk total_ayat
##    <int>      <int>
##  1     1          7
##  2     2        286
##  3     3        200
##  4     4        176
##  5     5        120
##  6     6        165
##  7     7        206
##  8     8         75
##  9     9        129
## 10    10        109
## #  with 104 more rows
…
